{
  "hosting": [
    {
      "target": "dashboard-ONS",
      "public": "dist/dashboard-ONS",
      "ignore": [
        "firebase.json",
        "**/.*",
        "**/node_modules/**"
      ],
      "rewrites": [
        {
          "source": "**",
          "destination": "/index.html"
        }
      ]
    }
  ]
}